<?xml version="1.0" encoding="UTF-8" standalone="no"?>
<!-- Created with Inkscape (http://www.inkscape.org/) -->

<svg
   xmlns:dc="http://purl.org/dc/elements/1.1/"
   xmlns:cc="http://creativecommons.org/ns#"
   xmlns:rdf="http://www.w3.org/1999/02/22-rdf-syntax-ns#"
   xmlns:svg="http://www.w3.org/2000/svg"
   xmlns="http://www.w3.org/2000/svg"
   xmlns:sodipodi="http://sodipodi.sourceforge.net/DTD/sodipodi-0.dtd"
   xmlns:inkscape="http://www.inkscape.org/namespaces/inkscape"
   width="48"
   height="48"
   viewBox="0 0 48 48"
   id="svg2"
   version="1.1"
   inkscape:version="0.91 r13725"
   sodipodi:docname="ic_warning_roadworks.svg">
  <defs
     id="defs4" />
  <sodipodi:namedview
     id="base"
     pagecolor="#ffffff"
     bordercolor="#666666"
     borderopacity="1.0"
     inkscape:pageopacity="0.0"
     inkscape:pageshadow="2"
     inkscape:zoom="16.666667"
     inkscape:cx="24"
     inkscape:cy="24"
     inkscape:document-units="px"
     inkscape:current-layer="layer1"
     showgrid="true"
     units="px"
     showguides="true"
     inkscape:guide-bbox="true"
     inkscape:window-width="1920"
     inkscape:window-height="1006"
     inkscape:window-x="0"
     inkscape:window-y="24"
     inkscape:window-maximized="1"
     inkscape:object-paths="true"
     inkscape:snap-bbox="false"
     inkscape:bbox-paths="true"
     inkscape:bbox-nodes="true"
     inkscape:object-nodes="true"
     inkscape:snap-smooth-nodes="false"
     inkscape:snap-nodes="true"
     inkscape:snap-object-midpoints="true"
     inkscape:snap-to-guides="false"
     inkscape:snap-others="false"
     inkscape:snap-intersection-paths="false"
     inkscape:snap-grids="false"
     inkscape:snap-midpoints="false"
     inkscape:snap-center="true"
     inkscape:snap-bbox-midpoints="true"
     inkscape:snap-bbox-edge-midpoints="true">
    <inkscape:grid
       type="xygrid"
       id="grid4136"
       spacingx="1"
       spacingy="1"
       empspacing="8" />
    <sodipodi:guide
       position="8,0"
       orientation="1,0"
       id="guide4138"
       inkscape:label=""
       inkscape:color="rgb(0,0,255)" />
    <sodipodi:guide
       position="40,0"
       orientation="1,0"
       id="guide4140"
       inkscape:label=""
       inkscape:color="rgb(0,0,255)" />
    <sodipodi:guide
       position="17,0"
       orientation="1,0"
       id="guide4142"
       inkscape:label=""
       inkscape:color="rgb(0,0,255)" />
    <sodipodi:guide
       position="31,0"
       orientation="1,0"
       id="guide4144"
       inkscape:label=""
       inkscape:color="rgb(0,0,255)" />
    <sodipodi:guide
       position="24,0"
       orientation="1,0"
       id="guide4146"
       inkscape:label=""
       inkscape:color="rgb(0,0,255)" />
    <sodipodi:guide
       position="0,8"
       orientation="0,1"
       id="guide4148"
       inkscape:label=""
       inkscape:color="rgb(0,0,255)" />
    <sodipodi:guide
       position="0,40"
       orientation="0,1"
       id="guide4150"
       inkscape:label=""
       inkscape:color="rgb(0,0,255)" />
    <sodipodi:guide
       position="0,31"
       orientation="0,1"
       id="guide4152"
       inkscape:label=""
       inkscape:color="rgb(0,0,255)" />
    <sodipodi:guide
       position="0,17"
       orientation="0,1"
       id="guide4154"
       inkscape:label=""
       inkscape:color="rgb(0,0,255)" />
    <sodipodi:guide
       position="0,24"
       orientation="0,1"
       id="guide4156"
       inkscape:label=""
       inkscape:color="rgb(0,0,255)" />
    <sodipodi:guide
       position="0,0"
       orientation="-0.70710678,0.70710678"
       id="guide4158"
       inkscape:label=""
       inkscape:color="rgb(0,0,255)" />
    <sodipodi:guide
       position="0,48"
       orientation="0.70710678,0.70710678"
       id="guide4160"
       inkscape:label=""
       inkscape:color="rgb(0,0,255)" />
  </sodipodi:namedview>
  <metadata
     id="metadata7">
    <rdf:RDF>
      <cc:Work
         rdf:about="">
        <dc:format>image/svg+xml</dc:format>
        <dc:type
           rdf:resource="http://purl.org/dc/dcmitype/StillImage" />
        <dc:title />
      </cc:Work>
    </rdf:RDF>
  </metadata>
  <g
     inkscape:label="Layer 1"
     inkscape:groupmode="layer"
     id="layer1"
     transform="translate(0,-1004.3622)">
    <path
       style="fill:#f44336;fill-rule:evenodd;stroke:none;stroke-width:0.05;stroke-linecap:butt;stroke-linejoin:miter;stroke-opacity:1;stroke-miterlimit:4;stroke-dasharray:none;fill-opacity:1"
       d="m 23.929688,1006.3642 a 3,3 0 0 0 -1.429688,0.4003 3,3 0 0 0 -1.09375,1.0977 l -0.0039,0 -18.480469,32.0078 a 3,3 0 0 0 1.0976562,4.0996 3,3 0 0 0 1.2714844,0.3887 l 0.00195,0 0.029297,0 a 3,3 0 0 0 0.3984375,0 l 36.7539059,0 0.002,0 a 3,3 0 0 0 1.498047,-0.3984 3,3 0 0 0 1.097657,-4.0977 l -18.472657,-31.998 -0.002,0 a 3,3 0 0 0 -2.667968,-1.498 z"
       id="path5054" />
    <path
       style="fill:#ffffff;fill-rule:evenodd;stroke:none;stroke-width:0.05;stroke-linecap:butt;stroke-linejoin:miter;stroke-opacity:1;stroke-miterlimit:4;stroke-dasharray:none;fill-opacity:1"
       d="m 5.5248313,1041.3622 36.9503377,0 -18.475169,-32 z"
       id="path4149" />
    <path
       d="m 22.5,1022.8622 c 1.1,0 2,-0.9 2,-2 0,-1.1 -0.9,-2 -2,-2 -1.1,0 -2,0.9 -2,2 0,1.1 0.9,2 2,2 z"
       id="path4308" />
    <path
       d="M 21 19 C 20.75 19 20.5 19.049991 20.25 19.150391 L 15 21.300781 L 14.158203 25 L 16.158203 25.300781 L 16.216797 25.046875 L 25.910156 29.060547 L 26.349609 29.800781 L 26.902344 29.470703 L 29.466797 30.533203 L 30.232422 29.767578 L 27.974609 28.833984 L 27.972656 28.832031 L 23.650391 21.550781 L 22.699219 19.949219 C 22.349219 19.349219 21.7 19 21 19 z M 18.75 21.900391 L 18.285156 24.279297 L 22.060547 25.84375 L 22.550781 23.400391 L 25.058594 27.625 L 16.443359 24.056641 L 16.730469 22.800781 L 18.75 21.900391 z "
       transform="translate(0,1004.3622)"
       id="path4323" />
    <path
       d="M 17.894531,1030.6454 16,1040.3622 l 2.099609,0 1.75,-8 2.150391,2 0,6 2,0 0,-7.1895 z"
       id="path10" />
    <path
       style="opacity:1;fill:#000000;fill-opacity:1;stroke:none;stroke-width:0.05;stroke-linejoin:round;stroke-miterlimit:4;stroke-dasharray:none;stroke-dashoffset:0;stroke-opacity:1"
       d="M 33.021484 28.621094 A 1.5 1.5 0 0 0 31.939453 29.060547 L 27.560547 33.439453 A 1.5 1.5 0 0 0 27.560547 35.560547 A 1.5 1.5 0 0 0 28.619141 36 L 37.357422 36 L 37.410156 36 L 37.410156 35.998047 A 1.5 1.5 0 0 0 38.439453 35.560547 A 1.5 1.5 0 0 0 38.439453 33.439453 L 34.060547 29.060547 A 1.5 1.5 0 0 0 33.021484 28.621094 z "
       transform="translate(0,1004.3622)"
       id="path4187" />
  </g>
</svg>
